PERIOD	VALUE
1960-01	36.390226
1960-02	35.9843528
1960-03	35.2648502
1960-04	34.858977
1960-05	34.6191428
1960-06	35.11726
1960-07	35.6246016
1960-08	36.4271236
1960-09	37.0728311
1960-10	38.0229434
1960-11	37.1742994
1960-12	37.0543824
1961-01	36.5101432
1961-02	37.1558506
1961-03	36.1503919
1961-04	35.3201966
1961-05	34.1948208
1961-06	33.8073964
1961-07	33.4107475
1961-08	33.6044597
1961-09	33.9549866
1961-10	35.0157917
1961-11	34.6191428
1961-12	34.8220794
1962-01	34.1486988
1962-02	34.3331867
1962-03	34.6652648
1962-04	34.9973429
1962-05	35.4677869
1962-06	35.209504
1962-07	35.679948
1962-08	35.2925234
1962-09	36.0489236
1962-10	36.7776506
1962-11	37.5248263
1962-12	37.4049092
1963-01	37.8569044
1963-02	38.576407
1963-03	39.4342754
1963-04	40.2829195
1963-05	40.7072415
1963-06	41.2976026
1963-07	41.9894319
1963-08	42.5521199
1963-09	43.3823151
1963-10	43.2531737
1963-11	43.6590469
1963-12	43.8158616
1964-01	44.7659739
1964-02	45.3102131
1964-03	45.7068619
1964-04	45.9835937
1964-05	46.251101
1964-06	46.9152572
1964-07	47.5794134
1964-08	47.6901062
1964-09	47.6901062
1964-10	47.1643158
1964-11	47.5517403
1964-12	48.1974478
1965-01	49.3597212
1965-02	49.7286968
1965-03	49.451965
1965-04	49.5811066
1965-05	49.9593066
1965-06	50.1899164
1965-07	50.5588921
1965-08	50.6695848
1965-09	51.1492532
1965-10	51.1400288
1965-11	51.49978
1965-12	51.3521898
1966-01	50.9647653
1966-02	50.4297506
1966-03	50.4205262
1966-04	50.5404433
1966-05	50.5035457
1966-06	50.2452628
1966-07	49.6087797
1966-08	49.710248
1966-09	49.8117164
1966-10	50.5404433
1966-11	50.7526043
1966-12	51.1031312
1967-01	50.5957896
1967-02	50.5588921
1967-03	50.6603604
1967-04	51.3521898
1967-05	52.2930777
1967-06	52.7358485
1967-07	52.9572339
1967-08	52.440668
1967-09	51.5735752
1967-10	51.5551264
1967-11	51.0570092
1967-12	51.3890873
1968-01	51.7119411
1968-02	52.2561802
1968-03	52.1085899
1968-04	52.0716923
1968-05	52.5052387
1968-06	53.5199219
1968-07	53.4737999
1968-08	53.7782049
1968-09	53.169395
1968-10	53.9442439
1968-11	54.9220295
1968-12	56.1212004
1969-01	56.4256053
1969-02	56.7023371
1969-03	56.9975176
1969-04	57.5140836
1969-05	57.7908153
1969-06	58.2981569
1969-07	58.5748886
1969-08	58.7501521
1969-09	59.1375766
1969-10	59.1836985
1969-11	59.783284
1969-12	60.0507914
1970-01	60.207606
1970-02	61.2315136
1970-03	62.0524844
1970-04	63.0671675
1970-05	62.984148
1970-06	62.9103528
1970-07	63.7128749
1970-08	64.7091093
1970-09	66.1204413
1970-10	66.6739047
1970-11	66.7108023
1970-12	67.1443487
1971-01	68.1313587
1971-02	69.2013881
1971-03	68.1498075
1971-04	67.4395293
1971-05	67.3565097
1971-06	68.3158465
1971-07	68.5280075
1971-08	68.0298903
1971-09	68.0483391
1971-10	67.9468709
1971-11	68.1774807
1971-12	67.3565097
1972-01	66.4525193
1972-02	64.7367825
1972-03	64.1556457
1972-04	63.1594114
1972-05	63.1870846
1972-06	63.0025968
1972-07	63.3346749
1972-08	63.5560603
1972-09	63.666753
1972-10	64.1833189
1972-11	65.4009387
1972-12	66.5078657
1973-01	67.6885879
1973-02	67.5963439
1973-03	68.1036855
1973-04	68.5833539
1973-05	69.3674272
1973-06	70.0408078
1973-07	70.7234128
1973-08	71.3045495
1973-09	71.387569
1973-10	71.4705886
1973-11	73.1863254
1973-12	74.0257451
1974-01	76.0089894
1974-02	76.4609846
1974-03	78.0475799
1974-04	78.9700191
1974-05	80.3444535
1974-06	80.4920439
1974-07	81.0086098
1974-08	81.4237074
1974-09	82.0048441
1974-10	82.4107173
1974-11	82.5121856
1974-12	84.0803322
1975-01	84.6522446
1975-02	86.1742692
1975-03	86.9122206
1975-04	87.8715574
1975-05	87.8715574
1975-06	87.2535231
1975-07	88.0652696
1975-08	88.1667379
1975-09	88.1944111
1975-10	88.7663234
1975-11	87.4011134
1975-12	86.967567
1976-01	86.0082302
1976-02	86.2665132
1976-03	85.9159862
1976-04	85.039669
1976-05	83.9973128
1976-06	82.567532
1976-07	81.7281123
1976-08	81.1562001
1976-09	80.6027365
1976-10	80.3260047
1976-11	79.8555607
1976-12	79.4404631
1977-01	78.7947557
1977-02	77.3280774
1977-03	75.5938917
1977-04	74.2379061
1977-05	73.4261596
1977-06	73.7028914
1977-07	73.0202864
1977-08	72.9372668
1977-09	71.7011984
1977-10	70.6403933
1977-11	69.4965687
1977-12	69.385876
1978-01	67.9468709
1978-02	68.5649051
1978-03	68.8139637
1978-04	69.598037
1978-05	68.3527441
1978-06	68.5095587
1978-07	68.4818855
1978-08	69.8009736
1978-09	70.8248811
1978-10	72.13474479999999
1978-11	72.2085398
1978-12	72.9372668
1979-01	67.1166755
1979-02	66.6646803
1979-03	66.6923535
1979-04	67.9653196
1979-05	68.7493929
1979-06	69.3582028
1979-07	69.7087297
1979-08	70.1699493
1979-09	70.7603104
1979-10	71.1385104
1979-11	72.2546618
1979-12	72.96494
1980-01	75.9813162
1980-02	78.9238972
1980-03	80.5012682
1980-04	80.2245365
1980-05	80.88869270000001
1980-06	83.3608297
1980-07	85.3071764
1980-08	87.2442987
1980-09	86.7830791
1980-10	85.556235
1980-11	84.6337958
1980-12	86.5709181
1981-01	87.4011134
1981-02	88.3696745
1981-03	90.7587921
1981-04	91.4044995
1981-05	90.9617287
1981-06	93.1202363
1981-07	93.2032559
1981-08	95.2602953
1981-09	96.3856711
1981-10	96.5517102
1981-11	99.7986961
1981-12	101.9295307
1982-01	106.2373217
1982-02	108.2205659
1982-03	109.7794882
1982-04	109.6226734
1982-05	110.8310688
1982-06	109.3736149
1982-07	107.6671024
1982-08	105.9329167
1982-09	106.809234
1982-10	107.7870195
1982-11	108.6817855
1982-12	105.9236923
1983-01	105.0565995
1983-02	102.3169551
1983-03	99.466618
1983-04	98.4888324
1983-05	95.9429002
1983-06	94.171817
1983-07	93.8120657
1983-08	92.4376313
1983-09	92.3177143
1983-10	93.2032559
1983-11	92.5298753
1983-12	91.9579629
1984-01	91.9671873
1984-02	91.9579629
1984-03	90.4451627
1984-04	90.6112017
1984-05	88.9877088
1984-06	92.6590167
1984-07	95.4632319
1984-08	98.267447
1984-09	99.6234326
1984-10	101.4775354
1984-11	101.9756526
1984-12	101.8003891
1985-01	102.6951551
1985-02	102.2892819
1985-03	102.4184234
1985-04	102.6582576
1985-05	100.1861206
1985-06	96.9760322
1985-07	95.3617636
1985-08	93.7659438
1985-09	90.7126701
1985-10	88.4895916
1985-11	85.6853764
1985-12	83.462298
1986-01	83.1394443
1986-02	81.7926831
1986-03	82.8165906
1986-04	82.2631271
1986-05	80.5012682
1986-06	80.1968633
1986-07	79.9754779
1986-08	79.1729557
1986-09	77.4941165
1986-10	76.3318431
1986-11	76.6454724
1986-12	75.9720918
1987-01	75.4186283
1987-02	75.8982966
1987-03	74.9020623
1987-04	74.4777403
1987-05	74.754472
1987-06	74.800594
1987-07	74.2379061
1987-08	74.754472
1987-09	74.634555
1987-10	74.588433
1987-11	74.8743892
1987-12	75.1603453
1988-01	74.8374916
1988-02	75.0865502
1988-03	76.0643357
1988-04	77.0882432
1988-05	78.5918191
1988-06	79.2283021
1988-07	77.8446433
1988-08	78.9054485
1988-09	79.4589119
1988-10	80.3
1988-11	82.56
1988-12	82.1986
1989-01	82.1986
1989-02	82.3277
1989-03	83.9973
1989-04	83.9973
1989-05	85.1411
1989-06	86.4879
1989-07	88.3973
1989-08	89.7718
1989-09	90.3806
1989-10	92.8251
1989-11	92.9357
1989-12	93.1848
1990-01	93.7567
1990-02	94.5961
1990-03	93.4154
1990-04	93.2678
1990-05	91.8104
1990-06	90.6297
1990-07	90.3898
1990-08	88.4619
1990-09	88.2221
1990-10	86.3219
1990-11	86.165
1990-12	86.7277
1991-01	86.9399
1991-02	87.0967
1991-03	86.8015
1991-04	85.012
1991-05	85.6946
1991-06	84.846
1991-07	84.5508
1991-08	83.7206
1991-09	84.0065
1991-10	84.7814
1991-11	85.916
1991-12	85.1596
1992-01	84.1541
1992-02	83.3701
1992-03	85.095
1992-04	84.3478
1992-05	85.3441
1992-06	85.9898
1992-07	84.477
1992-08	85.2887
1992-09	84.191
1992-10	82.6506
1992-11	81.7466
1992-12	81.2208
1993-01	82.2724
1993-02	82.5768
1993-03	80.1046
1993-04	81.0547
1993-05	79.6711
1993-06	79.3298
1993-07	79.1268
1993-08	80.0862
1993-09	79.4128
1993-10	79.0807
1993-11	76.9222
1993-12	78.5826
1994-01	78.887
1994-02	80.2338
1994-03	80.8887
1994-04	80.8241
1994-05	81.396
1994-06	81.147
1994-07	82.0325
1994-08	82.5952
1994-09	82.5768
1994-10	85.3348
1994-11	86.1835
1994-12	85.6946
1995-01	84.7629
1995-02	84.3202
1995-03	86.2204
1995-04	86.6632
1995-05	87.4011
1995-06	88.5542
1995-07	88.7387
1995-08	90.5466
1995-09	91.1554
1995-10	91.8657
1995-11	93.1018
1995-12	93.3693
1996-01	94.4762
1996-02	95.1865
1996-03	95.0666
1996-04	96.0444
1996-05	97.4465
1996-06	97.4373
1996-07	97.5848
1996-08	97.1882
1996-09	97.2343
1996-10	96.0628
1996-11	96.0997
1996-12	97.3727
1997-01	98.867
1997-02	99.7526
1997-03	99.5681
1997-04	100.0016
1997-05	99.5312
1997-06	99.6234
1997-07	99.522
1997-08	99.7618
1997-09	99.3375
1997-10	98.9501
1997-11	98.166
1997-12	99.7065
1998-01	101.0163
1998-02	102.4922
1998-03	102.9903
1998-04	104.1803
1998-05	104.5862
1998-06	108.3958
1998-07	111.4307
1998-08	111.7535
1998-09	114.3917
1998-10	114.5024
1998-11	113.1372
1998-12	110.6097
1999-01	106.35
1999-02	104.55
1999-03	102.96
1999-04	100.53
1999-05	98.93
1999-06	97.6
1999-07	95.78
1999-08	93.58
1999-09	93.74
1999-10	92.89
1999-11	92.41
1999-12	91.71
2000-01	91.79
2000-02	90.98
2000-03	91.25
2000-04	91.91
2000-05	92.86
2000-06	93.4
2000-07	94.05
2000-08	93.94
2000-09	93.82
2000-10	93.93
2000-11	94.14
2000-12	93.88
2001-01	93.66
2001-02	94.49
2001-03	94.69
2001-04	94.54
2001-05	94.38
2001-06	95.31
2001-07	94.48
2001-08	95.48
2001-09	97.7
2001-10	94.96
2001-11	94.76
2001-12	94.62
2002-01	94.96
2002-02	95.96
2002-03	96.6
2002-04	97.07
2002-05	97.5
2002-06	97.6
2002-07	99.43
2002-08	99.57
2002-09	100.48
2002-10	100.74
2002-11	101.82
2002-12	102.9
2003-01	102.31
2003-02	101.84
2003-03	102.47
2003-04	103.46
2003-05	104.97
2003-06	103.48
2003-07	102.92
2003-08	102.58
2003-09	102.13
2003-10	102.24
2003-11	101.63
2003-12	101.35
2004-01	100.03
2004-02	99.6
2004-03	99.42
2004-04	99.9
2004-05	99.93
2004-06	99.58
2004-07	99.78
2004-08	100.02
2004-09	100.75
2004-10	101.18
2004-11	101.59
2004-12	101.58
2005-01	100.77
2005-02	101.13
2005-03	101.0
2005-04	100.63
2005-05	100.84
2005-06	101.48
2005-07	101.58
2005-08	102.52
2005-09	101.56
2005-10	102.57
2005-11	102.17
2005-12	102.64
2006-01	102.57
2006-02	102.76
2006-03	103.36
2006-04	104.0
2006-05	104.28
2006-06	105.61
2006-07	105.51
2006-08	105.74
2006-09	104.98
2006-10	105.82
2006-11	106.36
2006-12	107.11
2007-01	106.96
2007-02	107.87
2007-03	109.86
2007-04	110.08
2007-05	109.25
2007-06	109.22
2007-07	110.28
2007-08	110.44
2007-09	111.6
2007-10	111.49
2007-11	111.46
2007-12	113.72
2008-01	115.44
2008-02	117.68
2008-03	117.63
2008-04	118.57
2008-05	119.15
2008-06	120.14
2008-07	121.74
2008-08	122.27
2008-09	124.99
2008-10	126.27
2008-11	127.41
2008-12	124.84
2009-01	122.71
2009-02	119.29
2009-03	119.08
2009-04	117.24
2009-05	115.73
2009-06	112.7
2009-07	109.57
2009-08	106.96
2009-09	104.52
2009-10	102.99
2009-11	101.76
2009-12	102.65
2010-01	100.46
2010-02	100.62
2010-03	100.1
2010-04	99.08
2010-05	99.02
2010-06	98.61
2010-07	100.2
2010-08	100.33
2010-09	99.86
2010-10	100.18
2010-11	100.15
2010-12	99.18
2011-01	98.2
2011-02	98.38
2011-03	98.79
2011-04	98.77
2011-05	99.39
2011-06	99.01
2011-07	98.72
2011-08	97.68
2011-09	98.07
2011-10	98.64
2011-11	99.09
2011-12	98.96
2012-01	99.36
2012-02	99.64
2012-03	99.05
2012-04	99.27
2012-05	99.45
2012-06	98.18
2012-07	97.59
2012-08	96.51
2012-09	97.32
2012-10	96.63
2012-11	97.63
2012-12	97.44
2013-01	97.27
2013-02	98.01
2013-03	98.86
2013-04	99.01
2013-05	99.2
2013-06	99.89
2013-07	100.66
2013-08	101.02
2013-09	101.57
2013-10	101.23
2013-11	101.91
2013-12	100.17
2014-01	99.36
2014-02	99.53
2014-03	98.9
2014-04	99.27
2014-05	98.5
2014-06	98.85
2014-07	100.34
2014-08	100.21
2014-09	100.38
2014-10	100.59
2014-11	101.62
2014-12	101.06
2015-01	100.24
2015-02	100.34
2015-03	100.37
2015-04	101.1
2015-05	101.5
2015-06	100.6
2015-07	99.74
2015-08	99.98
2015-09	99.5
2015-10	98.99
2015-11	99.33
2015-12	98.32
2016-01	97.84
2016-02	97.04
2016-03	97.24
2016-04	97.44
2016-05	96.36
2016-06	96.33
2016-07	95.92
2016-08	95.99
2016-09	96.99
2016-10	97.2
2016-11	97.69
2016-12	96.9
2017-01	97.5
2017-02	97.09
2017-03	98.39
2017-04	96.67
2017-05	97.06
2017-06	97.27
2017-07	96.33
2017-08	95.52
2017-09	96.3
2017-10	95.66
2017-11	95.41
2017-12	94.64
2018-01	94.26
2018-02	94.68
2018-03	94.4
2018-04	94.36
2018-05	94.52
2018-06	94.71
2018-07	94.66
2018-08	94.37
2018-09	95.34
2018-10	95.52
2018-11	NA
